^C:\LEARNINGWCF\LABS\CHAPTER1\MULTICONTRACTSERVICE\INTERNALCLIENT\FORM1.RESX|C:\LEARNINGWCF\LABS\CHAPTER1\MULTICONTRACTSERVICE\INTERNALCLIENT\PROPERTIES\RESOURCES.RESX
C:\LEARNINGWCF\LABS\CHAPTER1\MULTICONTRACTSERVICE\INTERNALCLIENT\OBJ\DEBUG\INTERNALCLIENT.FORM1.RESOURCES
C:\LEARNINGWCF\LABS\CHAPTER1\MULTICONTRACTSERVICE\INTERNALCLIENT\OBJ\DEBUG\INTERNALCLIENT.PROPERTIES.RESOURCES.RESOURCES
